*************************** START ****************************
START TIME: 202209281519
CONNECT BAUD: 115200
set state: ESP_DL_SYNC
serial port opened
-----------
baud:115200
root baud:115200
-------------
===============BAUD : 115200===============CALL DEVICE SYNC
connecting...
0x3ff00050: c74b0000
0x3ff00054: 02008022
0x3ff00058: 6400b000
0x3ff0005c: 005ccf7f
check_err_0: 0bcheck_err_1: 00check_err_2: 00check_err_3: 02check_err_4: 0b====================
EFUSE NORMAL MODE
====================
=========================
CRC IN MODE 1: 
crc_calc_res: 100
target crc val: 100
=========================
=========================
CRC IN MODE 1:
crc_calc_res: 75
target crc val: 75
=========================
==================
EFUSE LOG:
======================
    EFUSE LOG:
    ---------------
    REG0:C74B0000
    REG1:02008022
    REG2:6400b000
    REG3:005CCF7F
    ----------------
    ====================
                                   EFUSE NORMAL MODE
                                   ====================
EFUSE CHECK PASS...48bit mac
-----------------------
 5c cf 7f 80 22 c7CUSTOM_ID: 06 40 00 00 00 04 B0 00 
MAC AP : 5E-CF-7F-80-22-C7
MAC STA: 5C-CF-7F-80-22-C7
get mac res: 1
get flash id : 0x001640e0
manufacturer_id: 0xe0
device_id: 0x4016
Wrote 356512 bytes (253554 compressed) at 0x00000000 in 3.9 seconds (effective 731.4 kbit/s)...
Hash of data verified.Wrote 1028096 bytes (161104 compressed) at 0x00100000 in 6.4 seconds (effective 1282.5 kbit/s)...
Hash of data verified.
Leaving...
com closed
Use time: 14 s
Download result: PASS
*************************** END ****************************

